Working with Strings
…
str_to_lower(first_episode_desc)

[1] "monica and the gang introduce rachel to the \"real world\" after she leaves her fiancé at the altar."

str_to_upper(first_episode_desc)

[1] "MONICA AND THE GANG INTRODUCE RACHEL TO THE \"REAL WORLD\" AFTER SHE LEAVES HER FIANCÉ AT THE ALTAR."

Change all the titles to capital letters.

friends %>% 
  mutate(title = str_to_upper(title))

# A tibble: 235 × 5
   season episode title                                       description rating
    <dbl>   <dbl> <chr>                                       <chr>        <dbl>
 1      1       1 THE ONE WHERE MONICA GETS A ROOMMATE        "Monica an…    8.3
 2      1       2 THE ONE WITH THE SONOGRAM AT THE END        "Ross find…    8  
 3      1       3 THE ONE WITH THE THUMB                      "Monica be…    8.2
 4      1       4 THE ONE WITH GEORGE STEPHANOPOULOS          "Joey and …    8.1
 5      1       5 THE ONE WITH THE EAST GERMAN LAUNDRY DETER… "Eager to …    8.5
 6      1       6 THE ONE WITH THE BUTT                       "Monica's …    8.1
 7      1       7 THE ONE WITH THE BLACKOUT                   "When New …    9  
 8      1       8 THE ONE WHERE NANA DIES TWICE               "Monica an…    8.1
 9      1       9 THE ONE WHERE UNDERDOG GETS AWAY            "The gang'…    8.2
10      1      10 THE ONE WITH THE MONKEY                     "The gang …    8.1
# ℹ 225 more rows
…
