Day 10 Lab Solutions: Mixed Effect Models
…
mice_data_og <- read_csv(
  "https://www.ics.uci.edu/~zhaoxia/Data/BeyondTandANOVA/Example1.txt", 
  show_col_types = FALSE
)

mice_data <- mice_data_og %>% 
  mutate(treatment_id = factor(treatment_idx)) %>% 
  mutate(mouse_id = factor(midx)) %>% 
  select(mouse_id, pcreb = res, treatment_id)

mice_data

# A tibble: 1,200 × 3
   mouse_id pcreb treatment_id
   <fct>    <dbl> <fct>       
 1 1        1.63  1           
 2 1        0.970 1           
 3 1        0.518 1           
 4 1        0.303 1           
 5 1        0.582 1           
 6 1        0.500 1           
 7 1        0.732 1           
 8 1        0.980 1           
 9 1        0.897 1           
10 1        0.508 1           
# ℹ 1,190 more rows
…
